<svg xmlns="http://www.w3.org/2000/svg" width="25.949" height="24" viewBox="0 0 25.949 24">
  <g id="Credit_card" data-name="Credit card" transform="translate(-4.619 -8)">
    <path id="Path_35" data-name="Path 35" d="M0,0H2.812V8.434H0Z" transform="translate(4.619 26.037) rotate(-45)" fill="#ececec"/>
    <path id="Path_36" data-name="Path 36" d="M23.635,44.042a1.375,1.375,0,0,0,.7-.187l7.276-4.2a.929.929,0,0,0,.469-.812.949.949,0,0,0-.125-.469.9.9,0,0,0-.386-.361.941.941,0,0,0-.9.019L25.359,41.1a1.8,1.8,0,0,1-.365.521,1.864,1.864,0,0,1-1.325.55h-4.02a.469.469,0,0,1,0-.937h4.02a.931.931,0,0,0,.662-.275.848.848,0,0,0,.209-.332.877.877,0,0,0,.063-.431.921.921,0,0,0-.309-.6.962.962,0,0,0-.63-.233H19.84a1.4,1.4,0,0,1-.994-.412l-.114-.114a1.4,1.4,0,0,0-.992-.411h-3.6c-.047,0-.1,0-.148.008a1.4,1.4,0,0,0-.847.4l-1.229,1.229,4.492,4.492.1-.1a1.4,1.4,0,0,1,.994-.412Z" transform="translate(-3.877 -15.894)" fill="#ececec"/>
    <circle id="Ellipse_1" data-name="Ellipse 1" cx="0.937" cy="0.937" r="0.937" transform="translate(24.477 15.497)" fill="#ececec"/>
    <path id="Path_37" data-name="Path 37" d="M53.309,24a.922.922,0,0,0-.609.228,1.849,1.849,0,0,1,0,1.419.922.922,0,0,0,.609.228.937.937,0,0,0,0-1.874Z" transform="translate(-25.552 -8.503)" fill="#ececec"/>
    <path id="Path_38" data-name="Path 38" d="M26,26h5.623v.937H26Z" transform="translate(-11.363 -9.566)" fill="#ececec"/>
    <path id="Path_39" data-name="Path 39" d="M20,14H38.742v.937H20Z" transform="translate(-8.174 -3.189)" fill="#ececec"/>
    <path id="Path_40" data-name="Path 40" d="M38.742,9.406A1.406,1.406,0,0,0,37.337,8H21.406A1.406,1.406,0,0,0,20,9.406v.469H38.742Z" transform="translate(-8.174 0)" fill="#ececec"/>
    <path id="Path_41" data-name="Path 41" d="M38.742,18H20v5.154a1.406,1.406,0,0,0,1.406,1.406H37.337a1.406,1.406,0,0,0,1.406-1.406Zm-9.371,5.154a.469.469,0,0,1-.469.469h-6.56a.469.469,0,0,1-.469-.469V21.28a.469.469,0,0,1,.469-.469H28.9a.469.469,0,0,1,.469.469Zm6.56.469a1.869,1.869,0,0,1-1.176-.419,1.874,1.874,0,1,1,0-2.911,1.874,1.874,0,1,1,1.176,3.33Z" transform="translate(-8.174 -5.314)" fill="#ececec"/>
  </g>
</svg>
