<svg xmlns="http://www.w3.org/2000/svg" width="28" height="16.333" viewBox="0 0 28 16.333">
  <g id="hand-shake" transform="translate(0 -106.666)">
    <g id="Group_16" data-name="Group 16" transform="translate(0 106.666)">
      <g id="Group_15" data-name="Group 15" transform="translate(0 0)">
        <path id="Path_23" data-name="Path 23" d="M6.767,107.949c-.933-.933-4.9-1.167-6.183-1.283a.429.429,0,0,0-.35.117.885.885,0,0,0-.233.467v10.5a.551.551,0,0,0,.583.583h3.5a.642.642,0,0,0,.583-.35c0-.35,2.1-6.533,2.333-9.567A.466.466,0,0,0,6.767,107.949Z" transform="translate(0 -106.666)" fill="#ececec"/>
      </g>
    </g>
    <g id="Group_18" data-name="Group 18" transform="translate(9.902 109.116)">
      <g id="Group_17" data-name="Group 17" transform="translate(0 0)">
        <path id="Path_24" data-name="Path 24" d="M190.409,153.1c-1.167-.35-2.217-.817-3.15-1.167-2.1-.933-3.033-.467-4.9,1.4a3.817,3.817,0,0,0-1.283,2.45c0,.117,0,.117.233.233.583.233,1.4.35,2.217-.933a.606.606,0,0,1,.467-.233,2.162,2.162,0,0,0,.817-.233,5.687,5.687,0,0,1,.817-.35h.233c.117,0,.35.117.467.117.583.583,1.633,1.4,2.683,2.333a26.72,26.72,0,0,1,4.083,3.733h.117C192.393,158.117,190.993,154.15,190.409,153.1Z" transform="translate(-181.061 -151.467)" fill="#ececec"/>
      </g>
    </g>
    <g id="Group_20" data-name="Group 20" transform="translate(19.833 107.833)">
      <g id="Group_19" data-name="Group 19" transform="translate(0 0)">
        <path id="Path_25" data-name="Path 25" d="M370.249,128a20.459,20.459,0,0,0-7.233,1.167l-.35.35a.7.7,0,0,0,.117.467,65.709,65.709,0,0,1,3.383,9.217.775.775,0,0,0,.583.467h3.5a.551.551,0,0,0,.583-.583v-10.5A.551.551,0,0,0,370.249,128Z" transform="translate(-362.666 -128)" fill="#ececec"/>
      </g>
    </g>
    <g id="Group_22" data-name="Group 22" transform="translate(6.067 110.166)">
      <g id="Group_21" data-name="Group 21" transform="translate(0 0)">
        <path id="Path_26" data-name="Path 26" d="M125.984,179.767c-.467-1.05-2.45-2.567-4.2-3.967-.933-.817-1.867-1.517-2.567-2.1-.117.117-.35.117-.35.233a2.2,2.2,0,0,1-.933.233,2.882,2.882,0,0,1-3.383,1.167,1.379,1.379,0,0,1-1.05-1.05c-.233-1.167.817-2.8,1.633-3.617H112.8a59.482,59.482,0,0,1-1.867,7,13.186,13.186,0,0,0,1.283,1.283c2.217,1.867,4.783,3.733,5.25,4.083a3.316,3.316,0,0,0,1.4.467h.35l-1.867-1.867a.577.577,0,1,1,.817-.817l2.333,2.333c.233.233.467.117.7.117.35-.117.467-.35.583-.7l-2.683-2.683a.577.577,0,0,1,.817-.817l2.917,2.917a1.248,1.248,0,0,0,.933,0c.117-.117.35-.233.467-.467l-3.267-3.267a.577.577,0,0,1,.817-.817l3.383,3.383a.772.772,0,0,0,.7-.117A.792.792,0,0,0,125.984,179.767Z" transform="translate(-110.934 -170.667)" fill="#ececec"/>
      </g>
    </g>
  </g>
</svg>
